<?xml version="1.0" encoding="UTF-8"?>
<svg width="18px" height="17px" viewBox="0 0 18 17" version="1.1" xmlns="http://www.w3.org/2000/svg" xmlns:xlink="http://www.w3.org/1999/xlink">
    <!-- Generator: Sketch 62 (91390) - https://sketch.com -->
    <title>windows-icon</title>
    <desc>Created with Sketch.</desc>
    <g id="Landings" stroke="none" stroke-width="1" fill="none" fill-rule="evenodd">
        <g id="data_corruption_landing-4" transform="translate(-556.000000, -869.000000)" fill="#5A5A5A" fill-rule="nonzero">
            <path d="M573.239957,877.612766 C573.438814,877.612766 573.6,877.772796 573.6,877.970186 L573.6,877.970186 L573.6,885.118396 L573.592684,885.190427 C573.559107,885.353294 573.413924,885.475817 573.239923,885.475817 C573.224598,885.476855 573.209205,885.476855 573.193846,885.475817 L573.193846,885.475817 L564.552276,884.357114 C564.371613,884.333961 564.236825,884.180532 564.238298,883.999694 L564.238298,883.999694 L564.238298,877.970186 C564.238298,877.772796 564.399529,877.612766 564.598387,877.612766 L564.598387,877.612766 Z M563.114917,877.612766 C563.321729,877.612766 563.489362,877.777234 563.489362,877.980099 L563.489362,877.980099 L563.489362,883.985057 C563.489362,884.187922 563.321694,884.352391 563.114882,884.352391 C563.098944,884.353458 563.082935,884.353458 563.066962,884.352391 L563.066962,884.352391 L556.326537,883.48993 C556.138648,883.466135 555.998468,883.30845 556,883.122597 L556,883.122597 L556,877.980099 C556,877.777234 556.167681,877.612766 556.374492,877.612766 L556.374492,877.612766 Z M563.066964,870.126061 C563.173581,870.113557 563.28062,870.145557 563.362031,870.214242 C563.442846,870.283891 563.489221,870.384265 563.489362,870.489807 L563.489362,870.489807 L563.489362,876.496398 C563.489362,876.699318 563.321694,876.86383 563.114884,876.86383 L563.114884,876.86383 L556.374491,876.86383 C556.16768,876.86383 556,876.699318 556,876.496398 L556,876.496398 L556,871.352532 C555.998468,871.166629 556.138647,871.008902 556.326571,870.9851 L556.326571,870.9851 Z M573.193814,869.002525 C573.296939,868.990298 573.400367,869.022859 573.477533,869.091869 C573.555206,869.159605 573.599831,869.257223 573.6,869.359866 L573.6,869.359866 L573.6,876.506489 C573.6,876.703835 573.438781,876.86383 573.239925,876.86383 L573.239925,876.86383 L564.598386,876.86383 C564.399529,876.86383 564.238298,876.703835 564.238298,876.506489 L564.238298,876.506489 L564.238298,870.47832 C564.236792,870.297523 564.371613,870.144128 564.552275,870.120979 L564.552275,870.120979 Z" id="windows-icon"></path>
        </g>
    </g>
</svg>